<?xml version="1.0" encoding="UTF-8" standalone="no"?>
<!-- Created with Inkscape (http://www.inkscape.org/) -->

<svg
   xmlns:dc="http://purl.org/dc/elements/1.1/"
   xmlns:cc="http://creativecommons.org/ns#"
   xmlns:rdf="http://www.w3.org/1999/02/22-rdf-syntax-ns#"
   xmlns:svg="http://www.w3.org/2000/svg"
   xmlns="http://www.w3.org/2000/svg"
   xmlns:xlink="http://www.w3.org/1999/xlink"
   version="1.1"
   width="64"
   height="64"
   id="svg2">
  <defs
     id="defs4">
    <linearGradient
       id="linearGradient3825">
      <stop
         id="stop3827"
         style="stop-color:#444444;stop-opacity:1"
         offset="0" />
      <stop
         id="stop3829"
         style="stop-color:#44444f;stop-opacity:1"
         offset="1" />
    </linearGradient>
    <linearGradient
       id="linearGradient3817">
      <stop
         id="stop3819"
         style="stop-color:#111111;stop-opacity:1"
         offset="0" />
      <stop
         id="stop3821"
         style="stop-color:#444444;stop-opacity:1"
         offset="1" />
    </linearGradient>
    <linearGradient
       id="linearGradient4245">
      <stop
         id="stop4247"
         style="stop-color:#000000;stop-opacity:0.26875001"
         offset="0" />
      <stop
         id="stop4249"
         style="stop-color:#000000;stop-opacity:0.03125"
         offset="1" />
    </linearGradient>
    <clipPath
       id="clipPath4354">
      <path
         d="m 15.5,8 a 7.5,7.5 0 1 1 -15,0 7.5,7.5 0 1 1 15,0 z"
         transform="matrix(0.84210526,0,0,0.84210526,-5.0526316,-2.5263158)"
         id="path4356"
         style="fill:#ff01e5;fill-opacity:0.16465867;stroke:none" />
    </clipPath>
    <linearGradient
       x1="9"
       y1="15.25"
       x2="9"
       y2="0.75"
       id="linearGradient3033"
       xlink:href="#linearGradient3817"
       gradientUnits="userSpaceOnUse" />
    <linearGradient
       x1="6"
       y1="0.75"
       x2="6"
       y2="15.25"
       id="linearGradient3035"
       xlink:href="#linearGradient3825"
       gradientUnits="userSpaceOnUse" />
    <linearGradient
       x1="5"
       y1="16"
       x2="5"
       y2="0"
       id="linearGradient3037"
       xlink:href="#linearGradient4245"
       gradientUnits="userSpaceOnUse" />
  </defs>
  <metadata
     id="metadata7">
    <rdf:RDF>
      <cc:Work
         rdf:about="">
        <dc:format>image/svg+xml</dc:format>
        <dc:type
           rdf:resource="http://purl.org/dc/dcmitype/StillImage" />
        <dc:title />
      </cc:Work>
    </rdf:RDF>
  </metadata>
  <g
     transform="translate(0,-988.3622)"
     id="layer1">
    <g
       transform="matrix(0.13333333,0,0,0.13333333,1.1316942e-8,912.04722)"
       id="g3810">
      <g
         transform="matrix(4.0000001,0,0,4.0000001,-3.917403e-8,-3157.0866)"
         id="g3823">
        <path
           d="M 15.25,8 A 7.25,7.25 0 1 1 0.75,8 7.25,7.25 0 1 1 15.25,8 z"
           transform="matrix(7.5,0,0,7.5,-8.4877064e-8,932.3623)"
           id="path3047"
           style="fill:url(#linearGradient3033);fill-opacity:1;stroke:url(#linearGradient3035);stroke-width:0.5;stroke-miterlimit:4;stroke-opacity:1;stroke-dasharray:none" />
        <path
           d="M 16,8 A 8,8 0 1 1 0,8 8,8 0 1 1 16,8 z"
           transform="matrix(8.90625,0,0,8.90625,45,954.8623)"
           clip-path="url(#clipPath4354)"
           id="path4241"
           style="opacity:0.625;fill:url(#linearGradient3037);fill-opacity:1;stroke:none" />
        <rect
           width="30"
           height="30"
           ry="3.75"
           x="67.5"
           y="999.86188"
           id="rect3882"
           style="fill:#777777;fill-opacity:1;stroke:none" />
        <use
           transform="translate(-45.000002,-44.999503)"
           id="use3884"
           x="0"
           y="0"
           width="16"
           height="16"
           xlink:href="#rect3882" />
        <g
           transform="matrix(7.5,0,0,7.5,-2.2499995,-6838.1042)"
           id="g3061">
          <rect
             width="4"
             height="4"
             ry="0.5"
             x="3.3"
             y="1045.0621"
             id="rect3880"
             style="fill:#559900;fill-opacity:1;stroke:none" />
          <text
             x="4.0237246"
             y="1048.4318"
             id="text3906"
             xml:space="preserve"
             style="font-size:85.61682892px;font-style:normal;font-variant:normal;font-weight:bold;font-stretch:normal;line-height:125%;letter-spacing:0px;word-spacing:0px;fill:#000000;fill-opacity:1;stroke:#ffffff;stroke-width:0.12616062;stroke-linecap:round;stroke-linejoin:round;stroke-miterlimit:4;stroke-opacity:1;stroke-dasharray:none;font-family:FreeMono;-inkscape-font-specification:FreeMono Bold"><tspan
               x="4.0237246"
               y="1048.4318"
               id="tspan3908"
               style="font-size:4.28084135px;font-style:normal;font-variant:normal;font-weight:bold;font-stretch:normal;fill:#ffffff;fill-opacity:1;stroke:#ffffff;stroke-width:0.12616062;stroke-linecap:round;stroke-linejoin:round;stroke-miterlimit:4;stroke-opacity:1;stroke-dasharray:none;font-family:FreeMono;-inkscape-font-specification:FreeMono Bold">1</tspan></text>
        </g>
        <rect
           width="120"
           height="120"
           x="1.305801e-08"
           y="932.36218"
           id="rect3969"
           style="fill:none;stroke:none" />
        <use
           transform="translate(45,-44.999429)"
           id="use3066"
           x="0"
           y="0"
           width="16"
           height="16"
           xlink:href="#g3061" />
      </g>
    </g>
  </g>
</svg>
