<?xml version="1.0" encoding="UTF-8" standalone="no"?>
<!-- Created with Inkscape (http://www.inkscape.org/) -->

<svg
   xmlns:dc="http://purl.org/dc/elements/1.1/"
   xmlns:cc="http://creativecommons.org/ns#"
   xmlns:rdf="http://www.w3.org/1999/02/22-rdf-syntax-ns#"
   xmlns:svg="http://www.w3.org/2000/svg"
   xmlns="http://www.w3.org/2000/svg"
   xmlns:xlink="http://www.w3.org/1999/xlink"
   xmlns:sodipodi="http://sodipodi.sourceforge.net/DTD/sodipodi-0.dtd"
   xmlns:inkscape="http://www.inkscape.org/namespaces/inkscape"
   width="72"
   height="24"
   id="svg2"
   version="1.1"
   inkscape:version="0.48.5 r10040"
   sodipodi:docname="difficulty.svg">
  <defs
     id="defs4" />
  <sodipodi:namedview
     id="base"
     pagecolor="#ffffff"
     bordercolor="#666666"
     borderopacity="1.0"
     inkscape:pageopacity="0.0"
     inkscape:pageshadow="2"
     inkscape:zoom="11.2"
     inkscape:cx="37.463268"
     inkscape:cy="18.604304"
     inkscape:document-units="px"
     inkscape:current-layer="layer1"
     showgrid="true"
     inkscape:window-width="1920"
     inkscape:window-height="1017"
     inkscape:window-x="0"
     inkscape:window-y="27"
     inkscape:window-maximized="1">
    <inkscape:grid
       type="xygrid"
       id="grid2985"
       empspacing="5"
       visible="true"
       enabled="true"
       snapvisiblegridlinesonly="true" />
  </sodipodi:namedview>
  <metadata
     id="metadata7">
    <rdf:RDF>
      <cc:Work
         rdf:about="">
        <dc:format>image/svg+xml</dc:format>
        <dc:type
           rdf:resource="http://purl.org/dc/dcmitype/StillImage" />
        <dc:title />
      </cc:Work>
    </rdf:RDF>
  </metadata>
  <g
     inkscape:label="Layer 1"
     inkscape:groupmode="layer"
     id="layer1"
     transform="translate(0,-1028.3622)">
    <rect
       style="fill:#ffffff;fill-opacity:1;stroke:none"
       id="rect2987"
       width="10"
       height="9.9999323"
       x="0"
       y="1042.3622"
       ry="0" />
    <use
       x="0"
       y="0"
       xlink:href="#rect2987"
       id="use3757"
       transform="translate(14,1.7382813e-5)"
       width="24"
       height="24"
       style="fill:#ffffff;fill-opacity:1" />
    <use
       x="0"
       y="0"
       xlink:href="#rect2987"
       id="use3759"
       transform="translate(0,-13.999983)"
       width="24"
       height="24"
       style="fill:#ffffff;fill-opacity:1" />
    <use
       x="0"
       y="0"
       xlink:href="#rect2987"
       id="use3761"
       transform="translate(14,-13.999983)"
       width="24"
       height="24"
       style="fill:#ffffff;fill-opacity:1" />
    <use
       height="24"
       width="24"
       transform="matrix(0.6,0,0,0.59999707,24,420.94795)"
       id="use3763"
       xlink:href="#rect2987"
       y="0"
       x="0"
       style="fill:#ffffff;fill-opacity:1" />
    <use
       x="0"
       y="0"
       xlink:href="#use3763"
       id="use3765"
       transform="translate(9,-5.4491175e-6)"
       width="48"
       height="24"
       style="fill:#ffffff;fill-opacity:1" />
    <use
       x="0"
       y="0"
       xlink:href="#use3763"
       id="use3767"
       transform="translate(18,9.7092712e-5)"
       width="48"
       height="24"
       style="fill:#ffffff;fill-opacity:1" />
    <use
       x="0"
       y="0"
       xlink:href="#use3763"
       id="use3769"
       transform="translate(0,-8.9999029)"
       width="48"
       height="24"
       style="fill:#ffffff;fill-opacity:1" />
    <use
       x="0"
       y="0"
       xlink:href="#use3763"
       id="use3773"
       transform="translate(9,-8.9999029)"
       width="48"
       height="24"
       style="fill:#ffffff;fill-opacity:1" />
    <use
       x="0"
       y="0"
       xlink:href="#use3763"
       id="use3775"
       transform="translate(18,-9.0000054)"
       width="48"
       height="24"
       style="fill:#ffffff;fill-opacity:1" />
    <use
       x="0"
       y="0"
       xlink:href="#use3763"
       id="use3777"
       transform="translate(0,-17.999903)"
       width="48"
       height="24"
       style="fill:#ffffff;fill-opacity:1" />
    <use
       x="0"
       y="0"
       xlink:href="#use3763"
       id="use3779"
       transform="translate(9,-18.000005)"
       width="48"
       height="24"
       style="fill:#ffffff;fill-opacity:1" />
    <use
       x="0"
       y="0"
       xlink:href="#use3763"
       id="use3781"
       transform="translate(18,-18.000005)"
       width="48"
       height="24"
       style="fill:#ffffff;fill-opacity:1" />
    <use
       x="0"
       y="0"
       xlink:href="#rect2987"
       id="use3785"
       transform="matrix(0.3,0,0,0.30000603,48,736.64726)"
       width="24"
       height="24"
       style="fill:#ffffff;fill-opacity:1" />
    <use
       x="0"
       y="0"
       xlink:href="#use3785"
       id="use3787"
       transform="matrix(1,0,0,0.99999894,7,0.00111209)"
       width="72"
       height="24"
       style="fill:#ffffff;fill-opacity:1" />
    <use
       x="0"
       y="0"
       xlink:href="#use3785"
       id="use3789"
       transform="matrix(1,0,0,0.99999894,14,0.0010916)"
       width="72"
       height="24"
       style="fill:#ffffff;fill-opacity:1" />
    <use
       x="0"
       y="0"
       xlink:href="#use3785"
       id="use3791"
       transform="matrix(1,0,0,0.99999894,21,0.0010916)"
       width="72"
       height="24"
       style="fill:#ffffff;fill-opacity:1" />
    <use
       x="0"
       y="0"
       xlink:href="#use3785"
       id="use3793"
       transform="translate(0,-7.0000002)"
       width="72"
       height="24"
       style="fill:#ffffff;fill-opacity:1" />
    <use
       x="0"
       y="0"
       xlink:href="#use3787"
       id="use3795"
       transform="translate(0,-7.0000002)"
       width="72"
       height="24"
       style="fill:#ffffff;fill-opacity:1" />
    <use
       x="0"
       y="0"
       xlink:href="#use3789"
       id="use3797"
       transform="translate(0,-7.0000002)"
       width="72"
       height="24"
       style="fill:#ffffff;fill-opacity:1" />
    <use
       x="0"
       y="0"
       xlink:href="#use3791"
       id="use3799"
       transform="translate(0,-7.0000002)"
       width="72"
       height="24"
       style="fill:#ffffff;fill-opacity:1" />
    <use
       x="0"
       y="0"
       xlink:href="#use3793"
       id="use3801"
       transform="translate(0,-7)"
       width="72"
       height="24"
       style="fill:#ffffff;fill-opacity:1" />
    <use
       x="0"
       y="0"
       xlink:href="#use3795"
       id="use3803"
       transform="translate(0,-7)"
       width="72"
       height="24"
       style="fill:#ffffff;fill-opacity:1" />
    <use
       x="0"
       y="0"
       xlink:href="#use3797"
       id="use3805"
       transform="translate(0,-7)"
       width="72"
       height="24"
       style="fill:#ffffff;fill-opacity:1" />
    <use
       x="0"
       y="0"
       xlink:href="#use3799"
       id="use3807"
       transform="translate(0,-7)"
       width="72"
       height="24"
       style="fill:#ffffff;fill-opacity:1" />
    <use
       x="0"
       y="0"
       xlink:href="#use3801"
       id="use3809"
       transform="translate(0,-7.0000237)"
       width="72"
       height="24"
       style="fill:#ffffff;fill-opacity:1" />
    <use
       x="0"
       y="0"
       xlink:href="#use3803"
       id="use3811"
       transform="translate(0,-7.0000237)"
       width="72"
       height="24"
       style="fill:#ffffff;fill-opacity:1" />
    <use
       x="0"
       y="0"
       xlink:href="#use3805"
       id="use3813"
       transform="translate(0,-7.0000237)"
       width="72"
       height="24"
       style="fill:#ffffff;fill-opacity:1" />
    <use
       x="0"
       y="0"
       xlink:href="#use3807"
       id="use3815"
       transform="translate(0,-7.0000237)"
       width="72"
       height="24"
       style="fill:#ffffff;fill-opacity:1" />
  </g>
</svg>
