<?xml version="1.0" encoding="UTF-8" standalone="no"?>
<!-- Created with Inkscape (http://www.inkscape.org/) -->

<svg
   xmlns:dc="http://purl.org/dc/elements/1.1/"
   xmlns:cc="http://creativecommons.org/ns#"
   xmlns:rdf="http://www.w3.org/1999/02/22-rdf-syntax-ns#"
   xmlns:svg="http://www.w3.org/2000/svg"
   xmlns="http://www.w3.org/2000/svg"
   xmlns:xlink="http://www.w3.org/1999/xlink"
   xmlns:sodipodi="http://sodipodi.sourceforge.net/DTD/sodipodi-0.dtd"
   xmlns:inkscape="http://www.inkscape.org/namespaces/inkscape"
   width="64"
   height="64"
   id="svg2"
   version="1.1"
   inkscape:version="0.48.5 r10040"
   sodipodi:docname="64.svg">
  <defs
     id="defs4">
    <linearGradient
       id="linearGradient3825">
      <stop
         style="stop-color:#444444;stop-opacity:1;"
         offset="0"
         id="stop3827" />
      <stop
         style="stop-color:#44444f;stop-opacity:1;"
         offset="1"
         id="stop3829" />
    </linearGradient>
    <linearGradient
       id="linearGradient3817">
      <stop
         style="stop-color:#111111;stop-opacity:1;"
         offset="0"
         id="stop3819" />
      <stop
         style="stop-color:#444444;stop-opacity:1;"
         offset="1"
         id="stop3821" />
    </linearGradient>
    <linearGradient
       id="linearGradient4245">
      <stop
         id="stop4247"
         offset="0"
         style="stop-color:#000000;stop-opacity:0.26875001;" />
      <stop
         id="stop4249"
         offset="1"
         style="stop-color:#000000;stop-opacity:0.03125;" />
    </linearGradient>
    <clipPath
       clipPathUnits="userSpaceOnUse"
       id="clipPath4354">
      <path
         sodipodi:type="arc"
         style="fill:#ff01e5;fill-opacity:0.16465867;stroke:none"
         id="path4356"
         sodipodi:cx="8"
         sodipodi:cy="8"
         sodipodi:rx="7.5"
         sodipodi:ry="7.5"
         d="m 15.5,8 a 7.5,7.5 0 1 1 -15,0 7.5,7.5 0 1 1 15,0 z"
         transform="matrix(0.84210526,0,0,0.84210526,-5.0526316,-2.5263158)" />
    </clipPath>
    <linearGradient
       inkscape:collect="always"
       xlink:href="#linearGradient3817"
       id="linearGradient3033"
       gradientUnits="userSpaceOnUse"
       x1="9"
       y1="15.25"
       x2="9"
       y2="0.75" />
    <linearGradient
       inkscape:collect="always"
       xlink:href="#linearGradient3825"
       id="linearGradient3035"
       gradientUnits="userSpaceOnUse"
       x1="6"
       y1="0.75"
       x2="6"
       y2="15.25" />
    <linearGradient
       inkscape:collect="always"
       xlink:href="#linearGradient4245"
       id="linearGradient3037"
       gradientUnits="userSpaceOnUse"
       x1="5"
       y1="16"
       x2="5"
       y2="0" />
  </defs>
  <sodipodi:namedview
     id="base"
     pagecolor="#ffffff"
     bordercolor="#666666"
     borderopacity="1.0"
     inkscape:pageopacity="0.0"
     inkscape:pageshadow="2"
     inkscape:zoom="5.6789512"
     inkscape:cx="48.761951"
     inkscape:cy="10.854196"
     inkscape:document-units="px"
     inkscape:current-layer="g3810"
     showgrid="false"
     inkscape:window-width="1366"
     inkscape:window-height="707"
     inkscape:window-x="0"
     inkscape:window-y="25"
     inkscape:window-maximized="1"
     inkscape:snap-global="false"
     showborder="false"
     inkscape:snap-bbox="true">
    <inkscape:grid
       type="xygrid"
       id="grid2985"
       empspacing="4"
       visible="true"
       enabled="true"
       snapvisiblegridlinesonly="true"
       spacingy="1px"
       spacingx="1px" />
  </sodipodi:namedview>
  <metadata
     id="metadata7">
    <rdf:RDF>
      <cc:Work
         rdf:about="">
        <dc:format>image/svg+xml</dc:format>
        <dc:type
           rdf:resource="http://purl.org/dc/dcmitype/StillImage" />
        <dc:title />
      </cc:Work>
    </rdf:RDF>
  </metadata>
  <g
     inkscape:label="Layer 1"
     inkscape:groupmode="layer"
     id="layer1"
     transform="translate(0,-988.3622)">
    <g
       id="g3810"
       transform="matrix(0.13333333,0,0,0.13333333,1.1316942e-8,912.04722)">
      <g
         id="g3823"
         transform="matrix(4.0000001,0,0,4.0000001,-3.917403e-8,-3157.0866)">
        <path
           sodipodi:type="arc"
           style="fill:url(#linearGradient3033);fill-opacity:1;stroke:url(#linearGradient3035);stroke-width:0.5;stroke-miterlimit:4;stroke-opacity:1;stroke-dasharray:none"
           id="path3047"
           sodipodi:cx="8"
           sodipodi:cy="8"
           sodipodi:rx="7.25"
           sodipodi:ry="7.25"
           d="m 15.25,8 c 0,4.004064 -3.245936,7.25 -7.25,7.25 C 3.9959356,15.25 0.75,12.004064 0.75,8 0.75,3.9959356 3.9959356,0.75 8,0.75 c 4.004064,0 7.25,3.2459356 7.25,7.25 z"
           transform="matrix(7.5,0,0,7.5,-8.4877064e-8,932.3623)" />
        <path
           d="m 16,8 c 0,4.418278 -3.581722,8 -8,8 C 3.581722,16 0,12.418278 0,8 0,3.581722 3.581722,0 8,0 c 4.418278,0 8,3.581722 8,8 z"
           sodipodi:ry="8"
           sodipodi:rx="8"
           sodipodi:cy="8"
           sodipodi:cx="8"
           id="path4241"
           style="opacity:0.625;fill:url(#linearGradient3037);fill-opacity:1;stroke:none"
           sodipodi:type="arc"
           transform="matrix(8.90625,0,0,8.90625,45,954.8623)"
           clip-path="url(#clipPath4354)" />
        <rect
           style="fill:#777777;fill-opacity:1;stroke:none"
           id="rect3882"
           width="30"
           height="30"
           x="67.5"
           y="999.86188"
           ry="3.75" />
        <use
           x="0"
           y="0"
           xlink:href="#rect3882"
           id="use3884"
           transform="translate(-45.000002,-44.999503)"
           width="16"
           height="16" />
        <g
           id="g3061"
           transform="matrix(7.5,0,0,7.5,-2.2499995,-6838.1042)">
          <rect
             ry="0.5"
             y="1045.0621"
             x="3.3"
             height="4"
             width="4"
             id="rect3880"
             style="fill:#559900;fill-opacity:1;stroke:none" />
          <text
             xml:space="preserve"
             style="font-size:85.61682892px;font-style:normal;font-variant:normal;font-weight:bold;font-stretch:normal;line-height:125%;letter-spacing:0px;word-spacing:0px;fill:#000000;fill-opacity:1;stroke:#ffffff;stroke-width:0.12616062;stroke-linecap:round;stroke-linejoin:round;stroke-miterlimit:4;stroke-opacity:1;stroke-dasharray:none;font-family:FreeMono;-inkscape-font-specification:FreeMono Bold"
             x="4.0237246"
             y="1048.4318"
             id="text3906"
             sodipodi:linespacing="125%"><tspan
               sodipodi:role="line"
               id="tspan3908"
               x="4.0237246"
               y="1048.4318"
               style="font-size:4.28084135px;font-style:normal;font-variant:normal;font-weight:bold;font-stretch:normal;fill:#ffffff;fill-opacity:1;stroke:#ffffff;stroke-width:0.12616062;stroke-linecap:round;stroke-linejoin:round;stroke-miterlimit:4;stroke-opacity:1;stroke-dasharray:none;font-family:FreeMono;-inkscape-font-specification:FreeMono Bold">1</tspan></text>
        </g>
        <rect
           y="932.36218"
           x="1.305801e-08"
           height="120"
           width="120"
           id="rect3969"
           style="fill:none;stroke:none" />
        <use
           x="0"
           y="0"
           xlink:href="#g3061"
           id="use3066"
           transform="translate(45,-44.999429)"
           width="16"
           height="16" />
      </g>
    </g>
  </g>
</svg>
