<?xml version="1.0" encoding="UTF-8" standalone="no"?>
<!-- Created with Inkscape (http://www.inkscape.org/) -->

<svg
   xmlns:dc="http://purl.org/dc/elements/1.1/"
   xmlns:cc="http://creativecommons.org/ns#"
   xmlns:rdf="http://www.w3.org/1999/02/22-rdf-syntax-ns#"
   xmlns:svg="http://www.w3.org/2000/svg"
   xmlns="http://www.w3.org/2000/svg"
   xmlns:xlink="http://www.w3.org/1999/xlink"
   xmlns:inkscape="http://www.inkscape.org/namespaces/inkscape"
   version="1.1"
   width="24"
   height="24"
   id="svg2">
  <defs
     id="defs4" />
  <metadata
     id="metadata7">
    <rdf:RDF>
      <cc:Work
         rdf:about="">
        <dc:format>image/svg+xml</dc:format>
        <dc:type
           rdf:resource="http://purl.org/dc/dcmitype/StillImage" />
        <dc:title />
      </cc:Work>
    </rdf:RDF>
  </metadata>
  <g
     transform="translate(0,-1028.3622)"
     id="layer1">
    <path
       d="m 5.2145807,1050.554 c 0,0 0.3621758,2.0446 2.9481595,1.5371 2.6093398,-0.5121 2.2756808,-2.4463 2.2756808,-2.4463 l -0.5209307,-2.9545 -5.223841,0.9093 z"
       inkscape:connector-curvature="0"
       id="path2987"
       style="fill:#ffffff;fill-opacity:1;stroke:none" />
    <path
       d="m 4.2838612,1045.7082 5.1550605,-0.8414 c -0.6532101,-3.8005 -0.061003,-5.7326 -0.3675327,-7.4397 -0.3065298,-1.707 -0.7898692,-3.9834 -3.744294,-3.4624 -2.9544265,0.5209 -3.4185117,3.649 -2.8975804,6.6034 0.5209314,2.9544 1.8543466,5.1401 1.8543466,5.1401"
       inkscape:connector-curvature="0"
       id="path3757"
       style="fill:#ffffff;fill-opacity:1;stroke:none" />
    <use
       transform="matrix(-1,0,0,1,23.859375,-5.34375)"
       id="use3759"
       style="fill:#ffffff;fill-opacity:1"
       x="0"
       y="0"
       width="24"
       height="24"
       xlink:href="#path2987" />
    <use
       transform="matrix(-1,0,0,1,23.90625,-5.5625)"
       id="use3761"
       style="fill:#ffffff;fill-opacity:1"
       x="0"
       y="0"
       width="24"
       height="24"
       xlink:href="#path3757" />
  </g>
</svg>
